<?xml version="1.0" encoding="utf-8"?>
<!-- Generator: Adobe Illustrator 23.0.0, SVG Export Plug-In . SVG Version: 6.00 Build 0)  -->
<svg version="1.1" id="Layer_1" xmlns="http://www.w3.org/2000/svg" xmlns:xlink="http://www.w3.org/1999/xlink" x="0px" y="0px"
	 width="24px" height="24px" viewBox="0 0 24 24" style="enable-background:new 0 0 24 24;" xml:space="preserve">
<g>
	<path d="M23.3,2h-3.2V0.7c0-0.4-0.3-0.7-0.7-0.7h-2.9c-0.4,0-0.7,0.3-0.7,0.7V2H8.3V0.7C8.3,0.3,8,0,7.6,0H4.7
		C4.2,0,3.9,0.3,3.9,0.7V2H0.7C0.3,2,0,2.3,0,2.7v20.6C0,23.7,0.3,24,0.7,24h22.5c0.4,0,0.7-0.3,0.7-0.7V2.7C24,2.3,23.7,2,23.3,2z
		 M17.1,1.5h1.5v2.4h-1.5V1.5z M5.4,1.5h1.5v2.4H5.4V1.5z M3.9,3.4v1.2c0,0.4,0.3,0.7,0.7,0.7h2.9c0.4,0,0.7-0.3,0.7-0.7V3.4h7.3
		v1.2c0,0.4,0.3,0.7,0.7,0.7h2.9c0.4,0,0.7-0.3,0.7-0.7V3.4h2.4v3.4H1.5V3.4H3.9z M1.5,22.5V8.3h21.1v14.2H1.5z"/>
	<path d="M21.3,12.2c0.4,0,0.7-0.3,0.7-0.7c0-0.4-0.3-0.7-0.7-0.7h-4.2V9.6c0-0.4-0.3-0.7-0.7-0.7s-0.7,0.3-0.7,0.7v1.2h-3.4V9.6
		c0-0.4-0.3-0.7-0.7-0.7c-0.4,0-0.7,0.3-0.7,0.7v1.2H7.3V9.6c0-0.4-0.3-0.7-0.7-0.7c-0.4,0-0.7,0.3-0.7,0.7v1.2H2.7
		c-0.4,0-0.7,0.3-0.7,0.7c0,0.4,0.3,0.7,0.7,0.7h3.2v2.4H2.7C2.3,14.7,2,15,2,15.4s0.3,0.7,0.7,0.7h3.2v2.4H2.7
		c-0.4,0-0.7,0.3-0.7,0.7c0,0.4,0.3,0.7,0.7,0.7h3.2v1.2c0,0.4,0.3,0.7,0.7,0.7c0.4,0,0.7-0.3,0.7-0.7v-1.2h3.4v1.2
		c0,0.4,0.3,0.7,0.7,0.7c0.4,0,0.7-0.3,0.7-0.7v-1.2h3.4v1.2c0,0.4,0.3,0.7,0.7,0.7s0.7-0.3,0.7-0.7v-1.2h4.2c0.4,0,0.7-0.3,0.7-0.7
		c0-0.4-0.3-0.7-0.7-0.7h-4.2v-2.4h4.2c0.4,0,0.7-0.3,0.7-0.7s-0.3-0.7-0.7-0.7h-4.2v-2.4H21.3z M7.3,12.2h3.4v2.4H7.3V12.2z
		 M7.3,18.6v-2.4h3.4v2.4H7.3z M15.7,18.6h-3.4v-2.4h3.4V18.6z M15.7,14.7h-3.4v-2.4h3.4V14.7z"/>
</g>
</svg>
