<?xml version="1.0" encoding="utf-8"?>
<!-- Generator: Adobe Illustrator 23.0.0, SVG Export Plug-In . SVG Version: 6.00 Build 0)  -->
<svg version="1.1" baseProfile="tiny" id="Layer_1" xmlns="http://www.w3.org/2000/svg" xmlns:xlink="http://www.w3.org/1999/xlink"
	 x="0px" y="0px" width="24px" height="24px" viewBox="0 0 24 24" xml:space="preserve">
<path d="M22.6,0.3c0.2-0.3,0.7-0.4,1-0.2c0.3,0.2,0.4,0.7,0.2,1L8.8,22.7C8.2,23.5,7.3,24,6.4,24c-0.9,0-1.8-0.4-2.4-1.2l-3.8-5.1
	c-0.2-0.3-0.2-0.8,0.1-1.1s0.8-0.2,1.1,0.1l3.8,5.1c0.3,0.4,0.7,0.6,1.2,0.6s0.9-0.2,1.2-0.6L22.6,0.3z"/>
</svg>
