<?xml version="1.0" encoding="utf-8"?>
<!-- Generator: Adobe Illustrator 23.0.0, SVG Export Plug-In . SVG Version: 6.00 Build 0)  -->
<svg version="1.1" baseProfile="tiny" id="Layer_1" xmlns="http://www.w3.org/2000/svg" xmlns:xlink="http://www.w3.org/1999/xlink"
	 x="0px" y="0px" width="24px" height="24px" viewBox="0 0 24 24" xml:space="preserve">
<path d="M7.6,15c0.3-1.3,1.5-2.2,2.9-2.2c0.8,0,1.6,0.3,2.1,0.9c0.4,0.4,0.7,0.9,0.8,1.4h5.3c0.4,0,0.8,0.3,0.8,0.8
	c0,0.4-0.3,0.8-0.8,0.8h-5.3c-0.3,1.3-1.5,2.2-2.9,2.2c-1.4,0-2.6-1-2.9-2.2H5.2c-0.4,0-0.8-0.3-0.8-0.8c0-0.4,0.3-0.8,0.8-0.8H7.6z
	 M13.6,9H5.2C4.8,9,4.5,8.7,4.5,8.2s0.3-0.8,0.8-0.8h8.3c0.3-1.3,1.5-2.3,2.9-2.2c1.7,0,3,1.3,3,3c0,1.7-1.3,3-3,3
	C15.1,11.2,13.9,10.3,13.6,9z M2.3,0h19.5C23,0,24,1,24,2.2v19.5c0,1.2-1,2.2-2.2,2.2H2.3C1,24,0,23,0,21.8V2.2C0,1,1,0,2.3,0z
	 M2.3,1.5c-0.4,0-0.7,0.3-0.7,0.8v19.5c0,0.4,0.3,0.8,0.7,0.8h19.5c0.4,0,0.8-0.3,0.8-0.8V2.2c0-0.4-0.3-0.8-0.8-0.8H2.3z"/>
</svg>
